{
	"info": {
		"_postman_id": "0cb76c2b-e95d-45ce-959f-af702c936085",
		"name": "mainzelliste_AddPatient_ReadPatient",
		"schema": "https://schema.getpostman.com/json/collection/v2.1.0/collection.json"
	},
	"item": [
		{
			"name": "NEW_SESSION",
			"event": [
				{
					"listen": "test",
					"script": {
						"type": "text/javascript",
						"exec": [
							"console.log(\"newSession\")",
							"var jsonBody = JSON.parse(responseBody);",
							"",
							"tests[\"Session created\"] = responseCode.code === 201;",
							"tests[\"Body has sessionId\"] = responseBody.has(\"sessionId\");",
							"tests[\"Body has uri\"] = responseBody.has(\"uri\");",
							"",
							"var sessionId = jsonBody.sessionId;",
							"postman.setGlobalVariable(\"sessionId\", sessionId);",
							"",
							""
						]
					}
				}
			],
			"request": {
				"method": "POST",
				"header": [
					{
						"key": "mainzellisteApiKey",
						"value": "{{mainzellisteApiKey}}"
					},
					{
						"key": "mainzellisteApiVersion",
						"value": "{{mainzellisteApiVersion}}"
					}
				],
				"url": {
					"raw": "{{url}}/sessions",
					"host": [
						"{{url}}"
					],
					"path": [
						"sessions"
					]
				}
			},
			"response": []
		},
		{
			"name": "TOKEN_ADD_PATIENT",
			"event": [
				{
					"listen": "test",
					"script": {
						"id": "240b4969-6810-49e6-9505-3f68aa70ac38",
						"exec": [
							"var jsonBody = JSON.parse(responseBody);",
							"console.log(jsonBody);",
							"tests[\"Token created\"] = responseCode.code === 201;",
							"tests[\"Body has id\"] = responseBody.has(\"id\");",
							"tests[\"Type is addPatient\"] = jsonBody.type === \"addPatient\";",
							"tests[\"Body has data\"] = responseBody.has(\"data\");",
							"tests[\"Data has idTypes\"] = \"idTypes\" in jsonBody.data;",
							"",
							"var tokenId = jsonBody.id;",
							"postman.setGlobalVariable(\"tokenId\", tokenId);"
						],
						"type": "text/javascript"
					}
				}
			],
			"request": {
				"method": "POST",
				"header": [
					{
						"key": "mainzellisteApiKey",
						"value": "{{mainzellisteApiKey}}"
					},
					{
						"key": "Content-Type",
						"value": "application/json"
					},
					{
						"key": "mainzellisteApiVersion",
						"value": "{{mainzellisteApiVersion}}"
					}
				],
				"body": {
					"mode": "raw",
					"raw": "{\r\n\t\"type\": \"addPatient\",\r\n     \t\"data\": {\r\n     \t\t\"idtypes\": [{{idTypes}}]\r\n    \t}\r\n}"
				},
				"url": {
					"raw": "{{url}}/sessions/{{sessionId}}/tokens",
					"host": [
						"{{url}}"
					],
					"path": [
						"sessions",
						"{{sessionId}}",
						"tokens"
					]
				}
			},
			"response": []
		},
		{
			"name": "ADD_PATIENT_JSON",
			"event": [
				{
					"listen": "test",
					"script": {
						"id": "c5cd62d4-b1d6-45ce-9c09-548a3700d0e8",
						"exec": [
							"var jsonBody = JSON.parse(responseBody);",
							"console.log(jsonBody);",
							"tests[\"Patient created\"] = responseCode.code === 201;",
							"tests[\"idType is pid\"] = jsonBody[0].idType === \"pid\";",
							"tests[\"Element has idString\"] = \"idString\" in jsonBody[0];",
							"tests[\"Element has tentative\"] = \"tentative\" in jsonBody[0];",
							"tests[\"Element has uri\"] = \"uri\" in jsonBody[0];",
							"",
							"postman.setGlobalVariable(\"idType\", \"pid\")",
							"postman.setGlobalVariable(\"idString\", jsonBody[0].idString);"
						],
						"type": "text/javascript"
					}
				}
			],
			"request": {
				"method": "POST",
				"header": [
					{
						"key": "mainzellisteApiKey",
						"value": "{{mainzellisteApiKey}}"
					},
					{
						"key": "Content-Type",
						"value": "application/x-www-form-urlencoded"
					},
					{
						"key": "mainzellisteApiVersion",
						"value": "{{mainzellisteApiVersion}}"
					}
				],
				"body": {
					"mode": "urlencoded",
					"urlencoded": [
						{
							"key": "vorname",
							"value": "{{vorname}}",
							"type": "text"
						},
						{
							"key": "nachname",
							"value": "{{nachname}}",
							"type": "text"
						},
						{
							"key": "geburtsname",
							"value": "{{geburtsname}}",
							"type": "text"
						},
						{
							"key": "geburtstag",
							"value": "{{geburtstag}}",
							"type": "text"
						},
						{
							"key": "geburtsmonat",
							"value": "{{geburtsmonat}}",
							"type": "text"
						},
						{
							"key": "geburtsjahr",
							"value": "{{geburtsjahr}}",
							"type": "text"
						},
						{
							"key": "plz",
							"value": "{{plz}}",
							"type": "text"
						},
						{
							"key": "ort",
							"value": "{{ort}}",
							"type": "text"
						},
						{
							"key": "extid",
							"value": "2222222222",
							"type": "text",
							"disabled": true
						},
						{
							"key": "sureness",
							"value": "true",
							"type": "text",
							"disabled": true
						}
					]
				},
				"url": {
					"raw": "{{url}}/patients?tokenId={{tokenId}}",
					"host": [
						"{{url}}"
					],
					"path": [
						"patients"
					],
					"query": [
						{
							"key": "tokenId",
							"value": "{{tokenId}}"
						}
					]
				}
			},
			"response": []
		},
		{
			"name": "INVALID_TOKEN_ADD_PATIENT_FIELD",
			"event": [
				{
					"listen": "test",
					"script": {
						"id": "240b4969-6810-49e6-9505-3f68aa70ac38",
						"exec": [
							"tests[\"Bad Request\"] = responseCode.code === 400;"
						],
						"type": "text/javascript"
					}
				}
			],
			"request": {
				"method": "POST",
				"header": [
					{
						"key": "mainzellisteApiKey",
						"value": "{{mainzellisteApiKey}}"
					},
					{
						"key": "Content-Type",
						"value": "application/json"
					},
					{
						"key": "mainzellisteApiVersion",
						"value": "{{mainzellisteApiVersion}}"
					}
				],
				"body": {
					"mode": "raw",
					"raw": "{\r\n\t\"type\": \"addPatient\",\r\n     \t\"data\": {\r\n     \t\t\"fields\" : {\r\n     \t\t\t\"UnknownField\":\"UnknownFieldValue\"\r\n     \t\t},\r\n     \t\t\"idtypes\": [{{idTypes}}]\r\n    \t}\r\n}"
				},
				"url": {
					"raw": "{{url}}/sessions/{{sessionId}}/tokens",
					"host": [
						"{{url}}"
					],
					"path": [
						"sessions",
						"{{sessionId}}",
						"tokens"
					]
				}
			},
			"response": []
		},
		{
			"name": "NEW_SESSION",
			"event": [
				{
					"listen": "test",
					"script": {
						"type": "text/javascript",
						"exec": [
							"var jsonBody = JSON.parse(responseBody);",
							"console.log(jsonBody);",
							"tests[\"Session created\"] = responseCode.code === 201;",
							"tests[\"Body has sessionId\"] = responseBody.has(\"sessionId\");",
							"tests[\"Body has uri\"] = responseBody.has(\"uri\");",
							"",
							"var sessionId = jsonBody.sessionId;",
							"postman.clearGlobalVariable(\"sessionId\");",
							"postman.setGlobalVariable(\"sessionId\", sessionId);",
							"",
							"",
							""
						]
					}
				}
			],
			"request": {
				"method": "POST",
				"header": [
					{
						"key": "mainzellisteApiKey",
						"value": "{{mainzellisteApiKey}}"
					},
					{
						"key": "mainzellisteApiVersion",
						"value": "{{mainzellisteApiVersion}}"
					}
				],
				"body": {
					"mode": "raw",
					"raw": ""
				},
				"url": {
					"raw": "{{url}}/sessions",
					"host": [
						"{{url}}"
					],
					"path": [
						"sessions"
					]
				}
			},
			"response": []
		},
		{
			"name": "TOKEN_READ_PATIENT",
			"event": [
				{
					"listen": "test",
					"script": {
						"id": "9c1c997e-e520-4f26-8467-7aaf2b1d900f",
						"exec": [
							"var jsonBody = JSON.parse(responseBody);",
							"console.log(jsonBody);",
							"tests[\"Token created\"] = responseCode.code === 201;",
							"tests[\"Body has id\"] = responseBody.has(\"id\");",
							"tests[\"Type is readPatients\"] = jsonBody.type === \"readPatients\";",
							"tests[\"Body has data\"] = responseBody.has(\"data\");",
							"",
							"var tokenId = jsonBody.id;",
							"postman.setGlobalVariable(\"tokenId\", tokenId);"
						],
						"type": "text/javascript"
					}
				}
			],
			"request": {
				"method": "POST",
				"header": [
					{
						"key": "mainzellisteApiKey",
						"value": "{{mainzellisteApiKey}}"
					},
					{
						"key": "Content-Type",
						"value": "application/json"
					},
					{
						"key": "mainzellisteApiVersion",
						"value": "{{mainzellisteApiVersion}}"
					}
				],
				"body": {
					"mode": "raw",
					"raw": "{\r\n\t\"type\": \"readPatients\",\r\n \t\"data\": {\r\n\t \t\"searchIds\": [\r\n\t \t\t{\r\n\t \t\t\t\"idType\":\"{{idType}}\",\r\n\t \t\t\t\"idString\":\"{{idString}}\"\r\n\t \t\t}\r\n\t\t],\r\n\t\t\"resultFields\": [\"vorname\", \"nachname\", \"geburtsname\", \"geburtstag\", \"geburtsmonat\", \"geburtsjahr\", \"plz\", \"ort\"]\r\n \t}\r\n}"
				},
				"url": {
					"raw": "{{url}}/sessions/{{sessionId}}/tokens",
					"host": [
						"{{url}}"
					],
					"path": [
						"sessions",
						"{{sessionId}}",
						"tokens"
					]
				}
			},
			"response": []
		},
		{
			"name": "GET_PATIENT",
			"event": [
				{
					"listen": "test",
					"script": {
						"id": "7bd5d1bd-3d45-4962-bab5-21c604dc7674",
						"exec": [
							"var jsonBody = JSON.parse(responseBody);",
							"console.log(jsonBody);",
							"",
							"tests[\"patient found\"] = responseCode.code === 200;",
							"tests[\"patient vorname matches\"] = jsonBody[0].fields.vorname === pm.variables.get(\"vorname\");",
							"tests[\"patient nachname matches\"] = jsonBody[0].fields.nachname === pm.variables.get(\"nachname\");",
							"tests[\"patient geburtsname matches\"] = jsonBody[0].fields.geburtsname === pm.variables.get(\"geburtsname\");",
							"tests[\"patient geburtstag matches\"] = jsonBody[0].fields.geburtstag === pm.variables.get(\"geburtstag\");",
							"tests[\"patient geburtsmonat matches\"] = jsonBody[0].fields.geburtsmonat == pm.variables.get(\"geburtsmonat\");",
							"tests[\"patient geburtsjahr matches\"] = jsonBody[0].fields.geburtsjahr === pm.variables.get(\"geburtsjahr\");",
							"tests[\"patient plz matches\"] = jsonBody[0].fields.plz === pm.variables.get(\"plz\");",
							"tests[\"patient ort matches\"] = jsonBody[0].fields.ort === pm.variables.get(\"ort\");"
						],
						"type": "text/javascript"
					}
				}
			],
			"request": {
				"method": "GET",
				"header": [
					{
						"key": "mainzellisteApiKey",
						"value": "{{mainzellisteApiKey}}"
					},
					{
						"key": "Content-Type",
						"value": "application/json"
					},
					{
						"key": "mainzellisteApiVersion",
						"value": "{{mainzellisteApiVersion}}"
					}
				],
				"url": {
					"raw": "{{url}}/patients/tokenId/{{tokenId}}",
					"host": [
						"{{url}}"
					],
					"path": [
						"patients",
						"tokenId",
						"{{tokenId}}"
					]
				}
			},
			"response": []
		}
	],
	"protocolProfileBehavior": {}
}